<?xml version="1.0" encoding="UTF-8" standalone="no"?>
<!-- Created with Inkscape (http://www.inkscape.org/) -->

<svg
   xmlns:dc="http://purl.org/dc/elements/1.1/"
   xmlns:cc="http://creativecommons.org/ns#"
   xmlns:rdf="http://www.w3.org/1999/02/22-rdf-syntax-ns#"
   xmlns:svg="http://www.w3.org/2000/svg"
   xmlns="http://www.w3.org/2000/svg"
   xmlns:sodipodi="http://sodipodi.sourceforge.net/DTD/sodipodi-0.dtd"
   xmlns:inkscape="http://www.inkscape.org/namespaces/inkscape"
   width="598.90607mm"
   height="122.6207mm"
   viewBox="0 0 598.90606 122.62071"
   version="1.1"
   id="svg8"
   inkscape:version="0.92.2 (5c3e80d, 2017-08-06)"
   sodipodi:docname="long logo sans serif.svg">
  <defs
     id="defs2">
    <inkscape:perspective
       sodipodi:type="inkscape:persp3d"
       inkscape:vp_x="0 : 148.5 : 1"
       inkscape:vp_y="0 : 999.99997 : 0"
       inkscape:vp_z="210 : 148.5 : 1"
       inkscape:persp3d-origin="105 : 99.000002 : 1"
       id="perspective4551" />
  </defs>
  <sodipodi:namedview
     id="base"
     pagecolor="#ffffff"
     bordercolor="#666666"
     borderopacity="1.0"
     inkscape:pageopacity="0.0"
     inkscape:pageshadow="2"
     inkscape:zoom="0.49497475"
     inkscape:cx="1171.2983"
     inkscape:cy="-42.731999"
     inkscape:document-units="mm"
     inkscape:current-layer="layer1"
     showgrid="false"
     inkscape:snap-to-guides="false"
     inkscape:snap-others="false"
     inkscape:snap-grids="false"
     inkscape:snap-global="false"
     inkscape:measure-start="655,463.571"
     inkscape:measure-end="642.857,410.714"
     inkscape:window-width="1920"
     inkscape:window-height="1017"
     inkscape:window-x="2552"
     inkscape:window-y="-8"
     inkscape:window-maximized="1"
     showguides="true" />
  <metadata
     id="metadata5">
    <rdf:RDF>
      <cc:Work
         rdf:about="">
        <dc:format>image/svg+xml</dc:format>
        <dc:type
           rdf:resource="http://purl.org/dc/dcmitype/StillImage" />
        <dc:title></dc:title>
      </cc:Work>
    </rdf:RDF>
  </metadata>
  <g
     inkscape:label="Layer 1"
     inkscape:groupmode="layer"
     id="layer1"
     transform="translate(-6.5991872,-4.6380462)">
    <rect
       id="rect14"
       width="70.291878"
       height="36.348656"
       x="19.248129"
       y="-1.9232534"
       style="fill:#d5f6ff;fill-opacity:1;stroke-width:0.26458332"
       transform="rotate(19.578784)" />
    <rect
       id="rect14-7"
       width="70.291885"
       height="36.348656"
       x="16.229883"
       y="-121.69401"
       style="fill:#d5f6ff;fill-opacity:1;stroke-width:0.26458332"
       transform="rotate(90)" />
    <rect
       id="rect14-1"
       width="70.291885"
       height="36.348656"
       x="51.449375"
       y="88.797043"
       style="fill:#d5f6ff;fill-opacity:1;stroke-width:0.26458332" />
    <rect
       id="rect14-6"
       width="70.291885"
       height="36.348656"
       x="54.841587"
       y="-48.447193"
       style="fill:#d5f6ff;fill-opacity:1;stroke-width:0.26458332"
       transform="rotate(90)" />
    <g
       aria-label="Mollux"
       style="font-style:normal;font-variant:normal;font-weight:normal;font-stretch:normal;font-size:149.2250061px;line-height:1.25;font-family:sans-serif;-inkscape-font-specification:sans-serif;font-variant-ligatures:normal;font-variant-caps:normal;font-variant-numeric:normal;font-feature-settings:normal;text-align:start;letter-spacing:-13.22916698px;word-spacing:0px;writing-mode:lr-tb;text-anchor:start;fill:#d5f6ff;fill-opacity:1;stroke:none;stroke-width:0.26458332"
       id="text3711">
      <path
         d="m 131.1476,16.360079 h 35.70325 l 24.77368,58.218154 24.91941,-58.218154 h 35.63039 V 125.14569 H 225.65191 V 45.578451 L 200.58678,104.23379 H 182.80802 L 157.74288,45.578451 V 125.14569 H 131.1476 Z"
         style="font-style:normal;font-variant:normal;font-weight:bold;font-stretch:normal;font-size:149.2250061px;font-family:sans-serif;-inkscape-font-specification:'sans-serif Bold';letter-spacing:-13.22916698px;fill:#d5f6ff;fill-opacity:1;stroke-width:0.26458332"
         id="path22" />
      <path
         d="m 304.23109,60.22407 q -8.67079,0 -13.26121,6.266284 -4.51755,6.193421 -4.51755,17.924488 0,11.731067 4.51755,17.997348 4.59042,6.19342 13.26121,6.19342 8.52506,0 13.04261,-6.19342 4.51756,-6.266281 4.51756,-17.997348 0,-11.731067 -4.51756,-17.924488 -4.51755,-6.266284 -13.04261,-6.266284 z m 0,-18.653126 q 21.05763,0 32.86156,11.366748 11.8768,11.366749 11.8768,31.47715 0,20.110398 -11.8768,31.477148 -11.80393,11.36675 -32.86156,11.36675 -21.1305,0 -33.08015,-11.36675 -11.8768,-11.36675 -11.8768,-31.477148 0,-20.110401 11.8768,-31.47715 11.94965,-11.366748 33.08015,-11.366748 z"
         style="font-style:normal;font-variant:normal;font-weight:bold;font-stretch:normal;font-size:149.2250061px;font-family:sans-serif;-inkscape-font-specification:'sans-serif Bold';letter-spacing:-13.22916698px;fill:#d5f6ff;fill-opacity:1;stroke-width:0.26458332"
         id="path24" />
      <path
         d="m 354.75774,11.769661 h 26.08523 V 125.14569 h -26.08523 z"
         style="font-style:normal;font-variant:normal;font-weight:bold;font-stretch:normal;font-size:149.2250061px;font-family:sans-serif;-inkscape-font-specification:'sans-serif Bold';letter-spacing:-13.22916698px;fill:#d5f6ff;fill-opacity:1;stroke-width:0.26458332"
         id="path26" />
      <path
         d="m 392.82464,11.769661 h 26.08524 V 125.14569 h -26.08524 z"
         style="font-style:normal;font-variant:normal;font-weight:bold;font-stretch:normal;font-size:149.2250061px;font-family:sans-serif;-inkscape-font-specification:'sans-serif Bold';letter-spacing:-13.22916698px;fill:#d5f6ff;fill-opacity:1;stroke-width:0.26458332"
         id="path28" />
      <path
         d="m 430.01724,93.377086 v -49.83882 h 26.23095 v 8.160742 q 0,6.630604 -0.0729,16.685804 -0.0729,9.982337 -0.0729,13.334071 0,9.836609 0.51004,14.208435 0.51005,4.298962 1.74873,6.266282 1.60301,2.55023 4.15324,3.93465 2.62309,1.38441 5.97483,1.38441 8.16074,0 12.82402,-6.26629 4.66328,-6.266281 4.66328,-17.414438 V 43.538266 h 26.08523 v 81.607424 h -26.08523 v -11.80393 q -5.90196,7.14065 -12.53257,10.56525 -6.55774,3.35173 -14.49989,3.35173 -14.13557,0 -21.56767,-8.67079 -7.35924,-8.67079 -7.35924,-25.210864 z"
         style="font-style:normal;font-variant:normal;font-weight:bold;font-stretch:normal;font-size:149.2250061px;font-family:sans-serif;-inkscape-font-specification:'sans-serif Bold';letter-spacing:-13.22916698px;fill:#d5f6ff;fill-opacity:1;stroke-width:0.26458332"
         id="path30" />
      <path
         d="M 544.664,83.394749 515.22703,43.538266 h 27.61537 l 16.6858,24.190772 16.9044,-24.190772 h 27.61537 l -29.43696,39.710756 30.89424,41.896668 H 577.88988 L 559.5282,99.351915 541.38513,125.14569 h -27.61537 z"
         style="font-style:normal;font-variant:normal;font-weight:bold;font-stretch:normal;font-size:149.2250061px;font-family:sans-serif;-inkscape-font-specification:'sans-serif Bold';letter-spacing:-13.22916698px;fill:#d5f6ff;fill-opacity:1;stroke-width:0.26458332"
         id="path32" />
    </g>
    <flowRoot
       xml:space="preserve"
       id="flowRoot14"
       style="font-style:normal;font-weight:normal;font-size:40px;line-height:1.25;font-family:sans-serif;letter-spacing:0px;word-spacing:0px;fill:#000000;fill-opacity:1;stroke:none"
       transform="matrix(0.26458333,0,0,0.26458333,6.5991872,4.6380462)"><flowRegion
         id="flowRegion16"><rect
           id="rect18"
           width="2392.0413"
           height="862.67029"
           x="-119.198"
           y="-170.92749" /></flowRegion><flowPara
         id="flowPara20"></flowPara></flowRoot>  </g>
</svg>
